termproject/verilog_lib/TB.vcd
$date
	Thu Jun 03 05:37:48 2021
$end
$version
	Icarus Verilog
$end
$timescale
	1s
$end
$scope module TB $end
$var wire 1 ! pm_cs $end
$var wire 32 " pm_read_data [31:0] $end
$var wire 64 # pm_addr [63:0] $end
$var wire 64 $ dm_write_data [63:0] $end
$var wire 64 % dm_we [63:0] $end
$var wire 64 & dm_read_data [63:0] $end
$var wire 1 ' dm_cs $end
$var wire 64 ( dm_addr [63:0] $end
$var reg 1 ) clk $end
$var reg 1 * rst $end
$scope module core $end
$var wire 5 + MEMWB_rd [4:0] $end
$var wire 1 ) i_clk $end
$var wire 1 * i_rst $end
$var wire 1 ! o_pm_cs $end
$var wire 1 , takebranch $end
$var wire 1 - updateregister $end
$var wire 64 . temp_pmaddr [63:0] $end
$var wire 64 / temp_instruction1 [63:0] $end
$var wire 32 0 temp_instruction [31:0] $end
$var wire 64 1 temp_PC [63:0] $end
$var wire 1 2 stall $end
$var wire 5 3 rs2 [4:0] $end
$var wire 5 4 rs1 [4:0] $end
$var wire 5 5 rd [4:0] $end
$var wire 7 6 opcode [6:0] $end
$var wire 64 7 o_pm_addr [63:0] $end
$var wire 64 8 o_dm_we [63:0] $end
$var wire 64 9 o_dm_data [63:0] $end
$var wire 1 ' o_dm_cs $end
$var wire 64 : o_dm_addr [63:0] $end
$var wire 32 ; instruction [31:0] $end
$var wire 3 < i_type [2:0] $end
$var wire 32 = i_pm_data [31:0] $end
$var wire 64 > i_dm_data [63:0] $end
$var wire 7 ? funct7 [6:0] $end
$var wire 3 @ funct3 [2:0] $end
$var wire 8 A ctrlsignal [7:0] $end
$var wire 5 B branchcontrol [4:0] $end
$var wire 64 C PC [63:0] $end
$var wire 7 D MEMWBop [6:0] $end
$var wire 64 E MEMWB_value [63:0] $end
$var wire 5 F MEMWB_rs2 [4:0] $end
$var wire 5 G MEMWB_rs1 [4:0] $end
$var wire 64 H MEMWB_readdata2 [63:0] $end
$var wire 32 I MEMWB_instruction [31:0] $end
$var wire 3 J MEMWB_i_type [2:0] $end
$var wire 8 K MEMWB_ctrlsignal [7:0] $end
$var wire 64 L MEMWB_ALUresult [63:0] $end
$var wire 7 M IDEXop [6:0] $end
$var wire 1 N IDEX_takebranch $end
$var wire 1 O IDEX_stall $end
$var wire 5 P IDEX_rs2 [4:0] $end
$var wire 5 Q IDEX_rs1 [4:0] $end
$var wire 5 R IDEX_rd [4:0] $end
$var wire 32 S IDEX_instruction [31:0] $end
$var wire 3 T IDEX_i_type [2:0] $end
$var wire 8 U IDEX_ctrlsignal [7:0] $end
$var wire 4 V IDEX_ALUcontrolinput [3:0] $end
$var wire 64 W IDEXB [63:0] $end
$var wire 64 X IDEXA [63:0] $end
$var wire 2 Y ForwardB [1:0] $end
$var wire 2 Z ForwardA [1:0] $end
$var wire 7 [ EXMEMop [6:0] $end
$var wire 5 \ EXMEM_rs2 [4:0] $end
$var wire 5 ] EXMEM_rs1 [4:0] $end
$var wire 64 ^ EXMEM_readdata2 [63:0] $end
$var wire 5 _ EXMEM_rd [4:0] $end
$var wire 32 ` EXMEM_instruction [31:0] $end
$var wire 3 a EXMEM_i_type [2:0] $end
$var wire 8 b EXMEM_ctrlsignal [7:0] $end
$var wire 64 c EXMEM_ALUresult [63:0] $end
$var wire 64 d ALUresult [63:0] $end
$var wire 1 e ALUop1 $end
$var wire 1 f ALUop0 $end
$var wire 64 g ALUinput2 [63:0] $end
$var wire 64 h ALUinput1 [63:0] $end
$var wire 4 i ALUcontrolinput [3:0] $end
$scope module EXMEM $end
$var wire 186 j i [185:0] $end
$var wire 1 ) i_clk $end
$var wire 1 * i_rst $end
$var reg 186 k o [185:0] $end
$upscope $end
$scope module IDEX $end
$var wire 64 l i [63:0] $end
$var wire 1 ) i_clk $end
$var wire 1 * i_rst $end
$var reg 64 m o [63:0] $end
$upscope $end
$scope module LUTO $end
$var wire 3 n i [2:0] $end
$var wire 8 o o [7:0] $end
$upscope $end
$scope module MEMWB $end
$var wire 186 p i [185:0] $end
$var wire 1 ) i_clk $end
$var wire 1 * i_rst $end
$var reg 186 q o [185:0] $end
$upscope $end
$scope module pmaddress $end
$var wire 64 r i [63:0] $end
$var wire 1 ) i_clk $end
$var wire 1 * i_rst $end
$var reg 64 s o [63:0] $end
$upscope $end
$scope module programcount $end
$var wire 64 t i [63:0] $end
$var wire 1 ) i_clk $end
$var wire 1 * i_rst $end
$var reg 64 u o [63:0] $end
$upscope $end
$scope module reg0 $end
$var wire 1 ) i_clk $end
$var wire 1 v i_read0 $end
$var wire 1 w i_read1 $end
$var wire 5 x i_read_addr0 [4:0] $end
$var wire 5 y i_read_addr1 [4:0] $end
$var wire 1 * i_rst $end
$var wire 1 - i_write $end
$var wire 5 z i_write_addr [4:0] $end
$var wire 64 { i_write_data [63:0] $end
$var reg 64 | o_read_data0 [63:0] $end
$var reg 64 } o_read_data1 [63:0] $end
$upscope $end
$upscope $end
$scope module dm $end
$var wire 10 ~ i_addr [9:0] $end
$var wire 1 ) i_clk $end
$var wire 1 ' i_cs $end
$var wire 64 !" i_data [63:0] $end
$var wire 64 "" i_we [63:0] $end
$var reg 64 #" o_data [63:0] $end
$upscope $end
$scope module pm $end
$var wire 10 $" i_addr [9:0] $end
$var wire 1 ) i_clk $end
$var wire 1 ! i_cs $end
$var wire 32 %" i_data [31:0] $end
$var wire 32 &" i_we [31:0] $end
$var reg 32 '" o_data [31:0] $end
$upscope $end
$upscope $end
$enddefinitions $end
#0
$dumpvars
bx '"
b0 &"
bx %"
bx $"
bx #"
bx ""
bx !"
bx ~
bx }
bx |
bx {
bx z
bx y
bx x
1w
1v
bx u
bx t
bx s
b0xxxxxxxxxxxxxxxxxxxxxxxxxxxxxxxxxxxxxxxxxxxxxxxxxxxxxxxxxxxxxx r
bx q
bx p
bx o
bx n
bx m
bx l
bx k
bx j
bx i
bx h
bx g
xf
xe
bx d
bx c
bx b
bx a
bx `
bx _
bx ^
bx ]
bx \
bx [
bx Z
bx Y
bx X
bx W
bx V
bx U
bx T
bx S
bx R
bx Q
bx P
xO
xN
bx M
bx L
bx K
bx J
bx I
bx H
bx G
bx F
bx E
bx D
bx C
bx00 B
bx A
bx @
bx ?
bx >
bx =
bx <
bx ;
b0xxxxxxxxxxxxxxxxxxxxxxxxxxxxxxxxxxxxxxxxxxxxxxxxxxxxxxxxxxxxxx :
bx 9
bx 8
bx 7
bx 6
bx 5
bx 4
bx 3
x2
bx 1
bx 0
bx0 /
bx .
x-
x,
bx +
0*
0)
b0xxxxxxxxxxxxxxxxxxxxxxxxxxxxxxxxxxxxxxxxxxxxxxxxxxxxxxxxxxxxxx (
x'
bx &
bx %
bx $
bx #
bx "
1!
$end
#15
1)
#16
b0xxxxxxxxxxxxxxxxxxxxxxxxxxxxxxxxxxxxxxxxxxxxxxxxxxxxxxxxxxxxxx .
b0xxxxxxxxxxxxxxxxxxxxxxxxxxxxxxxxxxxxxxxxxxxxxxxxxxxxxxxxxxxxxx s
#30
0)
#45
1)
#60
0)
#75
1)
#90
0)
#105
1)
#120
0)
#135
1)
#150
0)
#156
1*
#157
b1 r
b0 $"
b100 t
0-
b0 Z
b0 Y
b0 ~
b0 #
b0 7
b0 1
0'
b0 (
b0 :
02
b0 B
b0 E
b0 {
b0 D
b0 +
b0 z
b0 %
b0 8
b0 ""
b0 $
b0 9
b0 !"
b0 [
bx00 l
0,
b0 /
b0 M
b0 J
b0 L
b0 H
b0 F
b0 G
b0 I
b0 K
b0 a
b0 _
b0 ^
b0 c
b0 \
b0 ]
b0 `
b0 p
b0 b
0O
0N
b0 T
b0 R
b0 P
b0 Q
b0 V
b0 S
b0xxxxxxxxxxxxxxxxxxxxxxxxxxxxxxxxxxxxxxxxxxxxxxxxxxxxxxxxxxxxxxxxxxxxxxxxxxxxxxxxxxxxxxxxxxxxxxxxxxxxxxxxxxxxxxxxxxxxxxxxxxxxxxxx00000000 j
b0 U
b0 q
b0 k
b0 m
b0 C
b0 u
b0 .
b0 s
#165
1)
#166
b10 i
0f
1e
b10100010 A
b10100010 o
b1 <
b1 n
b10011 6
b1 5
b0 @
b0 4
b0 x
b1000000000000000010010011 0
b1010001000000001000000000000000010010011001000000100000000100100 l
b10000 3
b10000 y
b0 ?
b1000000000000000010010011 ;
b10010011000000000000000000000001 "
b10010011000000000000000000000001 =
b10010011000000000000000000000001 '"
#180
0)
#186
0*
#195
1)
#196
b10 r
b10000 d
b1000 t
b100 1
b10000 /
b10011 M
b1 $"
b10000 g
bx ^
b0xxxxxxxxxxxxxxxxxxxxxxxxxxxxxxxxxxxxxxxxxxxxxxxxxxxxxxxxxxxxxxxxxxxxxxxxxxxxxxxxxxxxxxxxxxxxxxxxxxxxxxxxxxxxxxxxxxxxxxxxxxxxxxxx00000000 p
bx c
b1 T
b1 R
b10000 P
b10 V
b1000000000000000010010011 S
b10100010 U
b1100 B
b1 #
b1 7
b0 h
b0xxxxxxxxxxxxxxxxxxxxxxxxxxxxxxxxxxxxxxxxxxxxxxxxxxxxxxxxxxxxxxxxxxxxxxxxxxxxxxxxxxxxxxxxxxxxxxxxxxxxxxxxxxxxxxxxxxxxxxxxxxxxxxxx00000000 k
b1010001000000001000000000000000010010011001000000100000000100100 m
b100 C
b100 u
b1 .
b1 s
b0 X
b0 |
b101000100000000100000000000000001001001100000100000000000000000000000000000000000000000000000000000000000000010000000000000000000000000000000000000000000000000000000000000000000000001001 j
b0 W
b0 }
#210
0)
#225
1)
#226
b11 r
b1100 t
b1000 1
bx E
bx {
b10 $"
b10011 [
b1000000000000011000010011 0
b1010001000000001000000000000011000010011001000000100000110000100 l
b1100 5
b10 #
b10 7
b1 a
b1 _
b0 ^
b10000 c
b10000 \
b1000000000000000010010011 `
b101000100000000100000000000000001001001100000100000000000000000000000000000000000000000000000000000000000000000000000000000000000000000000000000000000000000000000000000000001000000001001 p
b10100010 b
bx L
bx H
b1000000000000011000010011 ;
b10 .
b10 s
b1000 C
b1000 u
b101000100000000100000000000000001001001100000100000000000000000000000000000000000000000000000000000000000000010000000000000000000000000000000000000000000000000000000000000000000000001001 k
b0xxxxxxxxxxxxxxxxxxxxxxxxxxxxxxxxxxxxxxxxxxxxxxxxxxxxxxxxxxxxxxxxxxxxxxxxxxxxxxxxxxxxxxxxxxxxxxxxxxxxxxxxxxxxxxxxxxxxxxxxxxxxxxxx00000000 q
b10011000001100000000000000001 "
b10011000001100000000000000001 =
b10011000001100000000000000001 '"
#240
0)
#255
1)
#256
b100 r
b0 B
b10000 t
b1100 1
1-
b10000 E
b10000 {
b10011 D
b11 $"
b10 5
b1000000010000000100010011 0
b1010001000000001000000010000000100010011001000010100000001000100 l
b10 4
b10 x
b1 J
b1 +
b1 z
b10000 L
b0 H
b10000 F
b1000000000000000010010011 I
b10100010 K
b1100 R
b101000100000000100000000000001100001001100000100000000000000000000000000000000000000000000000000000000000000010000000000000000000000000000000000000000000000000000000000000000000001100001 j
b1000000000000011000010011 S
b11 #
b11 7
b1000000010000000100010011 ;
b101000100000000100000000000000001001001100000100000000000000000000000000000000000000000000000000000000000000000000000000000000000000000000000000000000000000000000000000000001000000001001 q
b1010001000000001000000000000011000010011001000000100000110000100 m
b1100 C
b1100 u
b11 .
b11 s
b10011000000010000000100000001 "
b10011000000010000000100000001 =
b10011000000010000000100000001 '"
#270
0)
#285
1)
#286
b101 r
b10100 t
b10000 1
b100010 A
b100010 o
b0 <
b0 n
b100 $"
b10000000000010000 /
b110011 6
b100 5
b100 4
b100 x
b110000100000001000110011 0
b10001000000000110000100000001000110011001000100011000010000000 l
b1100 3
b1100 y
b100 #
b100 7
b10000 B
b10 R
b10 Q
b101000100000000100000001000000010001001100010100000000000000000000000000000000000000000000000000000000000000010000000000000000000000000000000000000000000000000000000000000000000000010001 j
b1000000010000000100010011 S
b1100 _
b101000100000000100000000000001100001001100000100000000000000000000000000000000000000000000000000000000000000000000000000000000000000000000000000000000000000000000000000000001000001100001 p
b1000000000000011000010011 `
b110000100000001000110011 ;
b100 .
b100 s
b10000 C
b10000 u
b1010001000000001000000010000000100010011001000010100000001000100 m
b101000100000000100000000000001100001001100000100000000000000000000000000000000000000000000000000000000000000010000000000000000000000000000000000000000000000000000000000000000000001100001 k
b110011000000101100001000000000 "
b110011000000101100001000000000 =
b110011000000101100001000000000 '"
#300
0)
#315
1)
#316
b10000 d
b110 r
b10 i
b1 Y
b11000 t
b10100 1
0f
0e
b10000 g
b10001000 A
b10001000 o
b11 <
b11 n
b100000000000001100 /
b110011 M
b101 $"
b100011 6
b1000 5
b11 @
b110001100011010000100011 0
b1000100000000000110001100011010000100011001001100011000100001100 l
b1100 4
b1100 x
b1100 +
b1100 z
b1000000000000011000010011 I
b10 _
b10 ]
b101000100000000100000001000000010001001100010100000000000000000000000000000000000000000000000000000000000000000000000000000000000000000000000000000000000000000000000000000001000000010001 p
b1000000010000000100010011 `
b0 T
b100 R
b1100 P
b100 Q
b110000100000001000110011 S
b1000100000000011000010000000100011001100100011000000000000000000000000000000000000000000000000000000000000010000000000000000000000000000000000000000000000000000000000000000000000100000 j
b100010 U
b101 #
b101 7
b110001100011010000100011 ;
b101000100000000100000000000001100001001100000100000000000000000000000000000000000000000000000000000000000000000000000000000000000000000000000000000000000000000000000000000001000001100001 q
b101000100000000100000001000000010001001100010100000000000000000000000000000000000000000000000000000000000000010000000000000000000000000000000000000000000000000000000000000000000000010001 k
b10001000000000110000100000001000110011001000100011000010000000 m
b10100 C
b10100 u
b101 .
b101 s
b100011001101001100011000000000 "
b100011001101001100011000000000 =
b100011001101001100011000000000 '"
#330
0)
#345
1)
#346
b10 i
b111 r
1e
b11100 t
b11000 1
b0 Y
b10100010 A
b10100010 o
b1 <
b1 n
b11000 d
b1100 g
b110 $"
b1100011000000001100 /
b100011 M
b110011 [
b10011 6
b1011 5
b0 @
b1011 4
b1011 x
b0 3
b0 y
b1010001000000010000001011000010110010011001001011000000101100100 l
b10000001011000010110010011 0
b1 ?
b110 #
b110 7
b11 T
b1000 R
b1100 Q
b110001100011010000100011 S
b10001000 U
b0 a
b100 _
b1100 \
b100 ]
b110000100000001000110011 `
b1000100000000011000010000000100011001100100011000000000000000000000000000000000000000000000000000000000000000000000000000000000000000000000000000000000000000000000000000001000000100000 p
b100010 b
b10 +
b10 z
b10 G
b1000000010000000100010011 I
b10000001011000010110010011 ;
b10000 h
b110 .
b110 s
b11000 C
b11000 u
b1000100000000000110001100011010000100011001001100011000100001100 m
b1000100000000011000010000000100011001100100011000000000000000000000000000000000000000000000000000000000000010000000000000000000000000000000000000000000000000000000000000000000000100000 k
b101000100000000100000001000000010001001100010100000000000000000000000000000000000000000000000000000000000000000000000000000000000000000000000000000000000000000000000000000001000000010001 q
b10010011100001010000010100000010 "
b10010011100001010000010100000010 =
b10010011100001010000010100000010 '"
b100010000000000011000110001101000010001101100011000000000000000000000000000000000000000000000000000000000000011000000000000000000000000000000000000000000000000000000000000001000001000011 j
b10000 W
b10000 }
b10000 X
b10000 |
#360
0)
#375
1)
#376
1-
b10 i
b1000 r
0f
0e
b110 ~
b100000 t
b11100 1
b10001000 A
b10001000 o
b11 <
b11 n
b110 (
b110 :
1'
b1111111111111111111111111111111111111111111111111111111111111111 %
b1111111111111111111111111111111111111111111111111111111111111111 8
b1111111111111111111111111111111111111111111111111111111111111111 ""
b1100 B
b100000 g
b100000 d
b110011 D
b10000 $
b10000 9
b10000 !"
b100011 [
b1011000000000100000 /
b10011 M
b111 $"
b100011 6
b10000 5
b11 @
b1100 4
b1100 x
b10 3
b10 y
b1000100000000000001001100011100000100011001001100000101000001100 l
b1001100011100000100011 0
b0 ?
b0 J
b100 +
b100 z
b1100 F
b100 G
b110000100000001000110011 I
b100010 K
b11 a
b1000 _
b10000 ^
b11000 c
b1100 ]
b110001100011010000100011 `
b100010000000000011000110001101000010001101100011000000000000000000000000000000000000000000000000000000000000010000000000000000000000000000000000000000000000000000000000000001100001000011 p
b10001000 b
b1 T
b1011 R
b0 P
b1011 Q
b10000001011000010110010011 S
b10100010 U
b111 #
b111 7
b0 h
b1001100011100000100011 ;
b1000100000000011000010000000100011001100100011000000000000000000000000000000000000000000000000000000000000000000000000000000000000000000000000000000000000000000000000000001000000100000 q
b100010000000000011000110001101000010001101100011000000000000000000000000000000000000000000000000000000000000011000000000000000000000000000000000000000000000000000000000000001000001000011 k
b1010001000000010000001011000010110010011001001011000000101100100 m
b11100 C
b11100 u
b111 .
b111 s
b0 X
b0 |
b101000100000001000000101100001011001001101011000000000000000000000000000000000000000000000000000000000000000100000000000000000000000000000000000000000000000000000000000000000000001011001 j
b0 W
b0 }
b100011001110000010011000000000 "
b100011001110000010011000000000 =
b100011001110000010011000000000 '"
#390
0)
#405
1)
#406
b110 i
0-
1f
b101 A
b101 o
b100 <
b100 n
b1001 r
b100100 t
b100000 1
b0 ~
b10000 B
b10 g
0'
b0 %
b0 8
b0 ""
b0 (
b0 :
b11000 E
b11000 {
b1000 $"
b1100011000000000010 /
b100011 M
b0 $
b0 9
b0 !"
b10011 [
b100011 D
b1100011 6
b1001 5
b0 @
b10111111110001001100000010011100011011001100000100100110000 l
b11111110001001100000010011100011 0
b1111111 ?
b1000 #
b1000 7
b11 T
b10000 R
b10 P
b1100 Q
b1001100011100000100011 S
b10001000 U
b1 a
b1011 _
b0 ^
b100000 c
b0 \
b1011 ]
b10000001011000010110010011 `
b101000100000001000000101100001011001001101011000000000000000000000000000000000000000000000000000000000000000000000000000000000000000000000000000000000000000000000000000000010000001011001 p
b10100010 b
b11 J
b1000 +
b1000 z
b11000 L
b10000 H
b1100 G
b110001100011010000100011 I
b10001000 K
b11111110001001100000010011100011 ;
b10000 h
b1000 .
b1000 s
b100000 C
b100000 u
b1000100000000000001001100011100000100011001001100000101000001100 m
b101000100000001000000101100001011001001101011000000000000000000000000000000000000000000000000000000000000000100000000000000000000000000000000000000000000000000000000000000000000001011001 k
b100010000000000011000110001101000010001101100011000000000000000000000000000000000000000000000000000000000000010000000000000000000000000000000000000000000000000000000000000001100001000011 q
b11100011000001000010011011111110 "
b11100011000001000010011011111110 =
b11100011000001000010011011111110 '"
b100010000000000000100110001110000010001101100000100000000000000000000000000000000000000000000000000000000000100000000000000000000000000000000000000000000000000000000000000001000010000011 j
b10000 W
b10000 }
b10000 X
b10000 |
#420
0)
#435
1)
#436
1-
b10 i
b0 r
b1000 ~
b0 t
b1111111111111111111111111111111111111111111111111111111111111100 1
0f
1e
b100000 E
b100000 {
b1000 (
b1000 :
1'
b1111111111111111111111111111111111111111111111111111111111111111 %
b1111111111111111111111111111111111111111111111111111111111111111 8
b1111111111111111111111111111111111111111111111111111111111111111 ""
b0 d
b1100 B
b10000 g
b100010 A
b100010 o
b0 <
b0 n
b10011 D
b10000 $
b10000 9
b10000 !"
b100011 [
1,
b1111111111111111111111111111111111111111111101100000011111100010 /
b1100011 M
b1001 $"
b110011 6
b11 5
b10001000000000000000000000000000010011001001100000100001100010 l
b10011 0
b0 ?
b1 J
b1011 +
b1011 z
b100000 L
b0 H
b0 F
b1011 G
b10000001011000010110010011 I
b10100010 K
b11 a
b10000 _
b10000 ^
b10 \
b1100 ]
b1001100011100000100011 `
b100010000000000000100110001110000010001101100000100000000000000000000000000000000000000000000000000000000000010000000000000000000000000000000000000000000000000000000000000010000010000011 p
b10001000 b
b100 T
b1001 R
b110 V
b11111110001001100000010011100011 S
b1011111111000100110000001001110001101100000100000000000000000000000000000000000000000000000000000000000000000000000000000000000000000000000000000000000000000000000000001000001001100 j
b101 U
b1001 #
b1001 7
b1001100000000110110011 ;
b101000100000001000000101100001011001001101011000000000000000000000000000000000000000000000000000000000000000000000000000000000000000000000000000000000000000000000000000000010000001011001 q
b100010000000000000100110001110000010001101100000100000000000000000000000000000000000000000000000000000000000100000000000000000000000000000000000000000000000000000000000000001000010000011 k
b10111111110001001100000010011100011011001100000100100110000 m
b100100 C
b100100 u
b1001 .
b1001 s
b10110011000000010010011000000000 "
b10110011000000010010011000000000 =
b10110011000000010010011000000000 '"
#450
0)
#465
1)
#466
0-
b110 i
b100000 d
b0 B
b0 ~
b1 r
0'
b0 %
b0 8
b0 ""
b0 (
b0 :
b0 $"
b100 t
b0 1
0,
b0 /
b10011 M
b0 $
b0 9
b0 !"
b1100011 [
b100011 D
b1101 5
b10 4
b10 x
b10001000000000000000000000000000010011011000010011000110100000 l
b1100 3
b1100 y
b100000 ?
b0 #
b0 7
1N
b0 T
b11 R
b10 V
b10011 S
b1000100000000000000000000000000001001101100000100000000000000000000000000000000000000000000000000000000000100000000000000000000000000000000000000000000000000000000000000001000000011000 j
b100010 U
b100 a
b1001 _
b0 c
b11111110001001100000010011100011 `
b1011111111000100110000001001110001101100000100000000000000000000000000000000000000000000000000000000000010000000000000000000000000000000000000000000000000000000000000000000001001100 p
b101 b
b11 J
b10000 +
b10000 z
b10000 H
b10 F
b1100 G
b1001100011100000100011 I
b10001000 K
b1000000110000010000011010110011 ;
b0 .
b0 s
b0 C
b0 u
b10001000000000000000000000000000010011001001100000100001100010 m
b1011111111000100110000001001110001101100000100000000000000000000000000000000000000000000000000000000000000000000000000000000000000000000000000000000000000000000000000001000001001100 k
b100010000000000000100110001110000010001101100000100000000000000000000000000000000000000000000000000000000000010000000000000000000000000000000000000000000000000000000000000010000010000011 q
b10110011000001101100000101000000 "
b10110011000001101100000101000000 =
b10110011000001101100000101000000 '"
#480
0)
#495
1)
#496
b10 i
b10 r
b0 d
b1000 t
b100 1
b0 E
b0 {
b1000000000000000010010011 0
b10100010 A
b10100010 o
b1 <
b1 n
b1100011 D
b10011 [
b1 $"
b10011 6
b1 5
b0 4
b0 x
b1010001000000001000000000000000010010011001000000100000000100100 l
b10000 3
b10000 y
b0 ?
b100 J
b1001 +
b1001 z
b0 L
b11111110001001100000010011100011 I
b101 K
b0 a
b11 _
b100000 c
b10011 `
b1000100000000000000000000000000001001101100000100000000000000000000000000000000000000000000000000000000000010000000000000000000000000000000000000000000000000000000000000010000000011000 p
b100010 b
0N
b1101 R
b1100 P
b1000100000000000000000000000000001001100010011000000000000000000000000000000000000000000000000000000000000000000000000000000000000000000000000000000000000000000000000000001000001101000 j
b10 Q
b110 V
b10000 B
b1 #
b1 7
b1000000000000000010010011 ;
b1011111111000100110000001001110001101100000100000000000000000000000000000000000000000000000000000000000010000000000000000000000000000000000000000000000000000000000000000000001001100 q
b1000100000000000000000000000000001001101100000100000000000000000000000000000000000000000000000000000000000100000000000000000000000000000000000000000000000000000000000000001000000011000 k
b10001000000000000000000000000000010011011000010011000110100000 m
b100 C
b100 u
b1 .
b1 s
b10010011000000000000000000000001 "
b10010011000000000000000000000001 =
b10010011000000000000000000000001 '"
#510
0)
#525
1)
#526
x-
b0x Z
bx d
b11 r
b1100 t
b1000 1
b1100 B
b100000 E
b100000 {
b10 $"
b10000 /
b10011 D
b1000000000000011000010011 0
b1010001000000001000000000000011000010011001000000100000110000100 l
b1100 5
b10000 g
b10 #
b10 7
b1 T
b1 R
b10000 P
b0 Q
b10 V
b1000000000000000010010011 S
b10100010 U
b1101 _
b0 c
b1100 \
b1000100000000000000000000000000001001100010011000000000000000000000000000000000000000000000000000000000000010000000000000000000000000000000000000000000000000000000000000000000001101000 p
b10 ]
b0 J
b0xx +
b0xx z
b100000 L
b10011 I
b100010 K
b1000000000000011000010011 ;
b0x00000 h
b10 .
b10 s
b1000 C
b1000 u
b1010001000000001000000000000000010010011001000000100000000100100 m
b1000100000000000000000000000000001001100010011000000000000000000000000000000000000000000000000000000000000000000000000000000000000000000000000000000000000000000000000000001000001101000 k
b1000100000000000000000000000000001001101100000100000000000000000000000000000000000000000000000000000000000010000000000000000000000000000000000000000000000000000000000000010000000011000 q
b10011000001100000000000000001 "
b10011000001100000000000000001 =
b10011000001100000000000000001 '"
b10100010000000010000000000000000100100110000010000xxxxxxxxxxxxxxxxxxxxxxxxxxxxxxxxxxxxxxxxxxxxxxxxxxxxxxxxxxxxxxxx000000000000000000000000000000000000000000000000000000000000000000001001 j
b0 W
b0 }
b0 X
b0 |
#540
0)
#555
1)
#556
b10000 d
b0 h
b100 r
b0 B
b10000 t
b1100 1
b0 E
b0 {
b11 $"
b10 5
b1000000010000000100010011 0
b1010001000000001000000010000000100010011001000010100000001000100 l
b10 4
b10 x
b0xx0x +
b0xx0x z
b0 L
b1100 F
b10 G
b1 a
b1 _
b0 ^
bx c
b10000 \
b0 ]
b1000000000000000010010011 `
b101000100000000100000000000000001001001100000100000000000000000000000000000000000000000000000000000000000000000000xxxxxxxxxxxxxxxxxxxxxxxxxxxxxxxxxxxxxxxxxxxxxxxxxxxxxxxxxxxxxxxx00001001 p
b10100010 b
b1100 R
b101000100000000100000000000001100001001100000100000000000000000000000000000000000000000000000000000000000000010000000000000000000000000000000000000000000000000000000000000000000001100001 j
b1000000000000011000010011 S
b11 #
b11 7
b1000000010000000100010011 ;
b1000100000000000000000000000000001001100010011000000000000000000000000000000000000000000000000000000000000010000000000000000000000000000000000000000000000000000000000000000000001101000 q
b10100010000000010000000000000000100100110000010000xxxxxxxxxxxxxxxxxxxxxxxxxxxxxxxxxxxxxxxxxxxxxxxxxxxxxxxxxxxxxxxx000000000000000000000000000000000000000000000000000000000000000000001001 k
b1010001000000001000000000000011000010011001000000100000110000100 m
b1100 C
b1100 u
b11 .
b11 s
b10011000000010000000100000001 "
b10011000000010000000100000001 =
b10011000000010000000100000001 '"
#570
0)
#585
1)
#586
b101 r
b10100 t
b10000 1
b0 Z
1-
b100000 d
bx E
bx {
b100010 A
b100010 o
b0 <
b0 n
b100 $"
b10000000000010000 /
b110011 6
b100 5
b100 4
b100 x
b110000100000001000110011 0
b10001000000000110000100000001000110011001000100011000010000000 l
b1100 3
b1100 y
b100 #
b100 7
b10000 B
b10 R
b10 Q
b101000100000000100000001000000010001001100010100000000000000000000000000000000000000000000000000000000000000100000000000000000000000000000000000000000000000000000000000000000000000010001 j
b1000000010000000100010011 S
b1100 _
b10000 c
b101000100000000100000000000001100001001100000100000000000000000000000000000000000000000000000000000000000000000000000000000000000000000000000000000000000000000000000000000001000001100001 p
b1000000000000011000010011 `
b1 J
b1 +
b1 z
bx L
b0 H
b10000 F
b0 G
b1000000000000000010010011 I
b10100010 K
b110000100000001000110011 ;
b10000 h
b100 .
b100 s
b10000 C
b10000 u
b1010001000000001000000010000000100010011001000010100000001000100 m
b101000100000000100000000000001100001001100000100000000000000000000000000000000000000000000000000000000000000010000000000000000000000000000000000000000000000000000000000000000000001100001 k
b101000100000000100000000000000001001001100000100000000000000000000000000000000000000000000000000000000000000000000xxxxxxxxxxxxxxxxxxxxxxxxxxxxxxxxxxxxxxxxxxxxxxxxxxxxxxxxxxxxxxxx00001001 q
b110011000000101100001000000000 "
b110011000000101100001000000000 =
b110011000000101100001000000000 '"
b10000 X
b10000 |
#600
0)
#615
1)
#616
b110 r
b10 i
b1 Y
b11000 t
b10100 1
0f
0e
b10000 E
b10000 {
b10001000 A
b10001000 o
b11 <
b11 n
b100000000000001100 /
b110011 M
b101 $"
b100011 6
b1000 5
b11 @
b110001100011010000100011 0
b1000100000000000110001100011010000100011001001100011000100001100 l
b1100 4
b1100 x
b1100 +
b1100 z
b10000 L
b1000000000000011000010011 I
b10 _
b100000 c
b10 ]
b101000100000000100000001000000010001001100010100000000000000000000000000000000000000000000000000000000000000000000000000000000000000000000000000000000000000000000000000000010000000010001 p
b1000000010000000100010011 `
b0 T
b100 R
b1100 P
b100 Q
b110000100000001000110011 S
b100010 U
b101 #
b101 7
b110001100011010000100011 ;
b101000100000000100000000000001100001001100000100000000000000000000000000000000000000000000000000000000000000000000000000000000000000000000000000000000000000000000000000000001000001100001 q
b101000100000000100000001000000010001001100010100000000000000000000000000000000000000000000000000000000000000100000000000000000000000000000000000000000000000000000000000000000000000010001 k
b10001000000000110000100000001000110011001000100011000010000000 m
b10100 C
b10100 u
b101 .
b101 s
b1000100000000011000010000000100011001100100011000000000000000000000000000000000000000000000000000000000000100000000000000000000000000000000000000000000000000000000000000001000000100000 j
b10000 W
b10000 }
b100011001101001100011000000000 "
b100011001101001100011000000000 =
b100011001101001100011000000000 '"
#630
0)
#645
1)
#646
b10 i
b111 r
1e
b11100 t
b11000 1
b0 Y
b10100010 A
b10100010 o
b1 <
b1 n
b11000 d
b1100 g
b100000 E
b100000 {
b110 $"
b1100011000000001100 /
b100011 M
b110011 [
b10011 6
b1011 5
b0 @
b1011 4
b1011 x
b0 3
b0 y
b1010001000000010000001011000010110010011001001011000000101100100 l
b10000001011000010110010011 0
b1 ?
b110 #
b110 7
b11 T
b1000 R
b1100 Q
b110001100011010000100011 S
b100010000000000011000110001101000010001101100011000000000000000000000000000000000000000000000000000000000000011000000000000000000000000000000000000000000000000000000000000001000001000011 j
b10001000 U
b0 a
b100 _
b10000 ^
b1100 \
b100 ]
b110000100000001000110011 `
b1000100000000011000010000000100011001100100011000000000000000000000000000000000000000000000000000000000000010000000000000000000000000000000000000000000000000000000000000010000000100000 p
b100010 b
b10 +
b10 z
b100000 L
b10 G
b1000000010000000100010011 I
b10000001011000010110010011 ;
b110 .
b110 s
b11000 C
b11000 u
b1000100000000000110001100011010000100011001001100011000100001100 m
b1000100000000011000010000000100011001100100011000000000000000000000000000000000000000000000000000000000000100000000000000000000000000000000000000000000000000000000000000001000000100000 k
b101000100000000100000001000000010001001100010100000000000000000000000000000000000000000000000000000000000000000000000000000000000000000000000000000000000000000000000000000010000000010001 q
b10010011100001010000010100000010 "
b10010011100001010000010100000010 =
b10010011100001010000010100000010 '"
#660
0)
#675
1)
