termproject/verilog_lib/TB.vcd
$date
	Sat May 08 11:59:28 2021
$end
$version
	Icarus Verilog
$end
$timescale
	1s
$end
$scope module TB $end
$var wire 64 ! dm_addr [63:0] $end
$var wire 1 " dm_cs $end
$var wire 1 # dm_rw $end
$var wire 64 $ dm_write_data [63:0] $end
$var wire 1 % pm_cs $end
$var wire 32 & pm_read_data [31:0] $end
$var wire 64 ' pm_addr [63:0] $end
$var wire 64 ( dm_read_data [63:0] $end
$var reg 1 ) clk $end
$var reg 1 * rst $end
$scope module core $end
$var wire 64 + ALUinput1 [63:0] $end
$var wire 10 , clk_count [9:0] $end
$var wire 1 ) i_clk $end
$var wire 1 * i_rst $end
$var wire 64 - o_dm_addr [63:0] $end
$var wire 1 " o_dm_cs $end
$var wire 64 . o_dm_data [63:0] $end
$var wire 1 # o_dm_rw $end
$var wire 1 % o_pm_cs $end
$var wire 32 / trans_pm_data [31:0] $end
$var wire 64 0 signext [63:0] $end
$var wire 64 1 readdata2 [63:0] $end
$var wire 64 2 readdata1 [63:0] $end
$var wire 64 3 o_pm_addr [63:0] $end
$var wire 3 4 i_type [2:0] $end
$var wire 32 5 i_pm_data [31:0] $end
$var wire 64 6 i_dm_data [63:0] $end
$var wire 1 7 RegWrite $end
$var wire 1 8 MemtoReg $end
$var wire 1 9 MemWrite $end
$var wire 1 : MemRead $end
$var wire 8 ; LUTOUT [7:0] $end
$var wire 1 < Branch $end
$var wire 1 = ALUop0 $end
$var wire 64 > ALUinput2 [63:0] $end
$var wire 1 ? ALUSrc $end
$var wire 1 @ ALUOp1 $end
$scope module LUTO $end
$var wire 3 A i [2:0] $end
$var wire 8 B o [7:0] $end
$upscope $end
$scope module reg0 $end
$var wire 1 ) i_clk $end
$var wire 1 C i_read0 $end
$var wire 1 D i_read1 $end
$var wire 5 E i_read_addr0 [4:0] $end
$var wire 5 F i_read_addr1 [4:0] $end
$var wire 1 * i_rst $end
$var wire 1 7 i_write $end
$var wire 5 G i_write_addr [4:0] $end
$var wire 64 H i_write_data [63:0] $end
$var reg 64 I o_read_data0 [63:0] $end
$var reg 64 J o_read_data1 [63:0] $end
$upscope $end
$scope module u1 $end
$var wire 10 K i [9:0] $end
$var wire 1 ) i_clk $end
$var wire 1 * i_rst $end
$var reg 10 L o [9:0] $end
$upscope $end
$upscope $end
$scope module dm $end
$var wire 10 M i_addr [9:0] $end
$var wire 1 ) i_clk $end
$var wire 1 " i_cs $end
$var wire 64 N i_data [63:0] $end
$var wire 64 O i_we [63:0] $end
$var reg 64 P o_data [63:0] $end
$upscope $end
$scope module pm $end
$var wire 10 Q i_addr [9:0] $end
$var wire 1 ) i_clk $end
$var wire 1 % i_cs $end
$var wire 32 R i_data [31:0] $end
$var wire 32 S i_we [31:0] $end
$var reg 32 T o_data [31:0] $end
$upscope $end
$upscope $end
$enddefinitions $end
#0
$dumpvars
bx T
b0 S
bx R
bx Q
bx P
bz O
bz N
bz M
bx L
bx K
bx J
bx I
bx H
bx G
bx F
bx E
xD
1C
bx B
bx A
x@
x?
bx >
x=
x<
bx ;
x:
x9
x8
x7
bx 6
bx 5
bx 4
bzxxxxxxxxxx 3
bx 2
bx 1
b0xxxxxxxxxxxxx 0
bx /
bz .
bz -
b0 ,
bx +
0*
0)
bx (
bzxxxxxxxxxx '
bx &
1%
bz $
z#
z"
bz !
$end
#15
1)
#30
0)
#45
1)
#60
0)
#75
1)
#90
0)
#105
1)
#120
0)
#135
1)
#150
0)
#156
1*
#157
b1 K
b0 Q
bz0000000000 '
bz0000000000 3
b0 L
#165
1)
#166
b11 >
0=
1@
0<
09
0:
17
08
0?
b100010 ;
b100010 B
b0 4
b0 A
b11 0
1D
b10 E
b11 F
b11 G
b1100010000000010110011 /
b10110011000000000011000100000000 &
b10110011000000000011000100000000 5
b10110011000000000011000100000000 T
#180
0)
#186
0*
#195
1)
#196
b10 K
b1 Q
bz0000000001 '
bz0000000001 3
b1 L
b0 +
b0 2
b0 H
b0 I
#210
0)
#225
1)
#226
b10000000011 >
b10000000011 0
b11 K
b10 Q
b1000000001100010000000010110011 /
bz0000000010 '
bz0000000010 3
b10 L
b10110011000000000011000101000000 &
b10110011000000000011000101000000 5
b10110011000000000011000101000000 T
b0 1
b0 J
#240
0)
#255
1)
#256
b0 >
1?
b10100010 ;
b10100010 B
b1 4
b1 A
b10011 0
0D
b10011 F
b10011 G
b100 K
b11 Q
b1001100010000000010010011 /
bz0000000011 '
bz0000000011 3
b11 L
b10010011000000000011000100000001 &
b10010011000000000011000100000001 5
b10010011000000000011000100000001 T
#270
0)
#285
1)
#286
b1111111100011 >
1=
0@
1<
09
0:
07
x8
0?
b0x000101 ;
b0x000101 B
b100 4
b100 A
b1111111100011 0
1D
b1 E
b10 F
b10 G
b101 K
b100 Q
b11111110001000001000101011100011 /
bz0000000100 '
bz0000000100 3
b100 L
b11100011100010100010000011111110 &
b11100011100010100010000011111110 5
b11100011100010100010000011111110 T
#300
0)
#315
1)
#316
b10 >
0=
1@
0<
17
08
b100010 ;
b100010 B
b0 4
b0 A
b10 0
b110 K
b101 Q
b1000001000000000110011 /
bz0000000101 '
bz0000000101 3
b101 L
b110011100000000010000000000000 &
b110011100000000010000000000000 5
b110011100000000010000000000000 T
#330
0)
#345
1)
#346
b11 >
b11 0
b10 E
b11 F
b11 G
b111 K
b110 Q
b1100010000000010110011 /
bz0000000110 '
bz0000000110 3
b110 L
b10110011000000000011000100000000 &
b10110011000000000011000100000000 5
b10110011000000000011000100000000 T
#360
0)
#375
1)
#376
b1111111101010 >
x=
x@
x<
x9
x:
x7
x8
b0xxxxxxx ;
b0xxxxxxx B
b110 4
b110 A
b1111111101010 0
b11111 E
b1001 F
b1001 G
b1000 K
b111 Q
b11111110100111111111000101101111 /
bz0000000111 '
bz0000000111 3
b111 L
b1101111111100011001111111111110 &
b1101111111100011001111111111110 5
b1101111111100011001111111111110 T
#390
0)
#405
1)
#406
b0xxxxxxxxxxxxx >
x?
bx ;
bx B
bx 4
bx A
b0xxxxxxxxxxxxx 0
xD
bx E
bx F
bx G
b1001 K
b1000 Q
bx /
bz0000001000 '
bz0000001000 3
b1000 L
bx &
bx 5
bx T
#420
0)
#435
1)
#436
b1010 K
b1001 Q
bz0000001001 '
bz0000001001 3
b1001 L
bx +
bx 2
bx H
bx I
#450
0)
#465
1)
#466
b1011 K
b1010 Q
bz0000001010 '
bz0000001010 3
b1010 L
#480
0)
#495
1)
#496
b1100 K
b1011 Q
bz0000001011 '
bz0000001011 3
b1011 L
#510
0)
#525
1)
#526
b1101 K
b1100 Q
bz0000001100 '
bz0000001100 3
b1100 L
#540
0)
#555
1)
#556
b1110 K
b1101 Q
bz0000001101 '
bz0000001101 3
b1101 L
#570
0)
#585
1)
#586
b1111 K
b1110 Q
bz0000001110 '
bz0000001110 3
b1110 L
#600
0)
#615
1)
#616
b10000 K
b1111 Q
bz0000001111 '
bz0000001111 3
b1111 L
#630
0)
#645
1)
#646
b10001 K
b10000 Q
bz0000010000 '
bz0000010000 3
b10000 L
#660
0)
#675
1)
#676
b10010 K
b10001 Q
bz0000010001 '
bz0000010001 3
b10001 L
#690
0)
#705
1)
#706
b10011 K
b10010 Q
bz0000010010 '
bz0000010010 3
b10010 L
#720
0)
#735
1)
#736
b10100 K
b10011 Q
bz0000010011 '
bz0000010011 3
b10011 L
#750
0)
#765
1)
#766
b10101 K
b10100 Q
bz0000010100 '
bz0000010100 3
b10100 L
#780
0)
#795
1)
#796
b10110 K
b10101 Q
bz0000010101 '
bz0000010101 3
b10101 L
#810
0)
#825
1)
#826
b10111 K
b10110 Q
bz0000010110 '
bz0000010110 3
b10110 L
#840
0)
#855
1)
#856
b11000 K
b10111 Q
bz0000010111 '
bz0000010111 3
b10111 L
#870
0)
#885
1)
#886
b11001 K
b11000 Q
bz0000011000 '
bz0000011000 3
b11000 L
#900
0)
#915
1)
#916
b11010 K
b11001 Q
bz0000011001 '
bz0000011001 3
b11001 L
#930
0)
#945
1)
#946
b11011 K
b11010 Q
bz0000011010 '
bz0000011010 3
b11010 L
#960
0)
#975
1)
#976
b11100 K
b11011 Q
bz0000011011 '
bz0000011011 3
b11011 L
#990
0)
#1005
1)
#1006
b11101 K
b11100 Q
bz0000011100 '
bz0000011100 3
b11100 L
#1020
0)
#1035
1)
#1036
b11110 K
b11101 Q
bz0000011101 '
bz0000011101 3
b11101 L
#1050
0)
#1065
1)
#1066
b11111 K
b11110 Q
bz0000011110 '
bz0000011110 3
b11110 L
#1080
0)
#1095
1)
#1096
b100000 K
b11111 Q
bz0000011111 '
bz0000011111 3
b11111 L
#1110
0)
#1125
1)
#1126
b100001 K
b100000 Q
bz0000100000 '
bz0000100000 3
b100000 L
#1140
0)
#1155
1)
#1156
b100010 K
b100001 Q
bz0000100001 '
bz0000100001 3
b100001 L
#1170
0)
#1185
1)
#1186
b100011 K
b100010 Q
bz0000100010 '
bz0000100010 3
b100010 L
#1200
0)
#1215
1)
#1216
b100100 K
b100011 Q
bz0000100011 '
bz0000100011 3
b100011 L
#1230
0)
#1245
1)
#1246
b100101 K
b100100 Q
bz0000100100 '
bz0000100100 3
b100100 L
#1260
0)
#1275
1)
#1276
b100110 K
b100101 Q
bz0000100101 '
bz0000100101 3
b100101 L
#1290
0)
#1305
1)
#1306
b100111 K
b100110 Q
bz0000100110 '
bz0000100110 3
b100110 L
#1320
0)
#1335
1)
#1336
b101000 K
b100111 Q
bz0000100111 '
bz0000100111 3
b100111 L
#1350
0)
#1365
1)
#1366
b101001 K
b101000 Q
bz0000101000 '
bz0000101000 3
b101000 L
#1380
0)
#1395
1)
#1396
b101010 K
b101001 Q
bz0000101001 '
bz0000101001 3
b101001 L
#1410
0)
#1425
1)
#1426
b101011 K
b101010 Q
bz0000101010 '
bz0000101010 3
b101010 L
#1440
0)
#1455
1)
#1456
b101100 K
b101011 Q
bz0000101011 '
bz0000101011 3
b101011 L
#1470
0)
#1485
1)
#1486
b101101 K
b101100 Q
bz0000101100 '
bz0000101100 3
b101100 L
#1500
0)
#1515
1)
#1516
b101110 K
b101101 Q
bz0000101101 '
bz0000101101 3
b101101 L
#1530
0)
#1545
1)
#1546
b101111 K
b101110 Q
bz0000101110 '
bz0000101110 3
b101110 L
#1560
0)
#1575
1)
#1576
b110000 K
b101111 Q
bz0000101111 '
bz0000101111 3
b101111 L
#1590
0)
#1605
1)
#1606
b110001 K
b110000 Q
bz0000110000 '
bz0000110000 3
b110000 L
#1620
0)
#1635
1)
#1636
b110010 K
b110001 Q
bz0000110001 '
bz0000110001 3
b110001 L
#1650
0)
#1665
1)
#1666
b110011 K
b110010 Q
bz0000110010 '
bz0000110010 3
b110010 L
#1680
0)
#1695
1)
#1696
b110100 K
b110011 Q
bz0000110011 '
bz0000110011 3
b110011 L
#1710
0)
#1725
1)
#1726
b110101 K
b110100 Q
bz0000110100 '
bz0000110100 3
b110100 L
#1740
0)
#1755
1)
#1756
b110110 K
b110101 Q
bz0000110101 '
bz0000110101 3
b110101 L
#1770
0)
#1785
1)
#1786
b110111 K
b110110 Q
bz0000110110 '
bz0000110110 3
b110110 L
#1800
0)
#1815
1)
#1816
b111000 K
b110111 Q
bz0000110111 '
bz0000110111 3
b110111 L
#1830
0)
#1845
1)
#1846
b111001 K
b111000 Q
bz0000111000 '
bz0000111000 3
b111000 L
#1860
0)
#1875
1)
#1876
b111010 K
b111001 Q
bz0000111001 '
bz0000111001 3
b111001 L
#1890
0)
#1905
1)
#1906
b111011 K
b111010 Q
bz0000111010 '
bz0000111010 3
b111010 L
#1920
0)
#1935
1)
#1936
b111100 K
b111011 Q
bz0000111011 '
bz0000111011 3
b111011 L
#1950
0)
#1965
1)
#1966
b111101 K
b111100 Q
bz0000111100 '
bz0000111100 3
b111100 L
#1980
0)
#1995
1)
#1996
b111110 K
b111101 Q
bz0000111101 '
bz0000111101 3
b111101 L
#2010
0)
#2025
1)
#2026
b111111 K
b111110 Q
bz0000111110 '
bz0000111110 3
b111110 L
#2040
0)
#2055
1)
#2056
b1000000 K
b111111 Q
bz0000111111 '
bz0000111111 3
b111111 L
#2070
0)
#2085
1)
#2086
b1000001 K
b1000000 Q
bz0001000000 '
bz0001000000 3
b1000000 L
#2100
0)
#2115
1)
#2116
b1000010 K
b1000001 Q
bz0001000001 '
bz0001000001 3
b1000001 L
#2130
0)
#2145
1)
#2146
b1000011 K
b1000010 Q
bz0001000010 '
bz0001000010 3
b1000010 L
#2160
0)
#2175
1)
#2176
b1000100 K
b1000011 Q
bz0001000011 '
bz0001000011 3
b1000011 L
#2190
0)
#2205
1)
#2206
b1000101 K
b1000100 Q
bz0001000100 '
bz0001000100 3
b1000100 L
#2220
0)
#2235
1)
#2236
b1000110 K
b1000101 Q
bz0001000101 '
bz0001000101 3
b1000101 L
#2250
0)
#2265
1)
#2266
b1000111 K
b1000110 Q
bz0001000110 '
bz0001000110 3
b1000110 L
#2280
0)
#2295
1)
#2296
b1001000 K
b1000111 Q
bz0001000111 '
bz0001000111 3
b1000111 L
#2310
0)
#2325
1)
#2326
b1001001 K
b1001000 Q
bz0001001000 '
bz0001001000 3
b1001000 L
#2340
0)
#2355
1)
#2356
b1001010 K
b1001001 Q
bz0001001001 '
bz0001001001 3
b1001001 L
#2370
0)
#2385
1)
#2386
b1001011 K
b1001010 Q
bz0001001010 '
bz0001001010 3
b1001010 L
#2400
0)
#2415
1)
#2416
b1001100 K
b1001011 Q
bz0001001011 '
bz0001001011 3
b1001011 L
#2430
0)
#2445
1)
#2446
b1001101 K
b1001100 Q
bz0001001100 '
bz0001001100 3
b1001100 L
#2460
0)
#2475
1)
#2476
b1001110 K
b1001101 Q
bz0001001101 '
bz0001001101 3
b1001101 L
#2490
0)
#2505
1)
#2506
b1001111 K
b1001110 Q
bz0001001110 '
bz0001001110 3
b1001110 L
#2520
0)
#2535
1)
#2536
b1010000 K
b1001111 Q
bz0001001111 '
bz0001001111 3
b1001111 L
#2550
0)
#2565
1)
#2566
b1010001 K
b1010000 Q
bz0001010000 '
bz0001010000 3
b1010000 L
#2580
0)
#2595
1)
#2596
b1010010 K
b1010001 Q
bz0001010001 '
bz0001010001 3
b1010001 L
#2610
0)
#2625
1)
#2626
b1010011 K
b1010010 Q
bz0001010010 '
bz0001010010 3
b1010010 L
#2640
0)
#2655
1)
#2656
b1010100 K
b1010011 Q
bz0001010011 '
bz0001010011 3
b1010011 L
#2670
0)
#2685
1)
#2686
b1010101 K
b1010100 Q
bz0001010100 '
bz0001010100 3
b1010100 L
#2700
0)
#2715
1)
#2716
b1010110 K
b1010101 Q
bz0001010101 '
bz0001010101 3
b1010101 L
#2730
0)
#2745
1)
#2746
b1010111 K
b1010110 Q
bz0001010110 '
bz0001010110 3
b1010110 L
#2760
0)
#2775
1)
#2776
b1011000 K
b1010111 Q
bz0001010111 '
bz0001010111 3
b1010111 L
#2790
0)
#2805
1)
#2806
b1011001 K
b1011000 Q
bz0001011000 '
bz0001011000 3
b1011000 L
#2820
0)
#2835
1)
#2836
b1011010 K
b1011001 Q
bz0001011001 '
bz0001011001 3
b1011001 L
#2850
0)
#2865
1)
#2866
b1011011 K
b1011010 Q
bz0001011010 '
bz0001011010 3
b1011010 L
#2880
0)
#2895
1)
#2896
b1011100 K
b1011011 Q
bz0001011011 '
bz0001011011 3
b1011011 L
#2910
0)
#2925
1)
#2926
b1011101 K
b1011100 Q
bz0001011100 '
bz0001011100 3
b1011100 L
#2940
0)
#2955
1)
#2956
b1011110 K
b1011101 Q
bz0001011101 '
bz0001011101 3
b1011101 L
#2970
0)
#2985
1)
#2986
b1011111 K
b1011110 Q
bz0001011110 '
bz0001011110 3
b1011110 L
